<?xml version="1.0" encoding="UTF-8" standalone="no"?>
<svg
   xmlns:dc="http://purl.org/dc/elements/1.1/"
   xmlns:cc="http://creativecommons.org/ns#"
   xmlns:rdf="http://www.w3.org/1999/02/22-rdf-syntax-ns#"
   xmlns:svg="http://www.w3.org/2000/svg"
   xmlns="http://www.w3.org/2000/svg"
   xmlns:sodipodi="http://sodipodi.sourceforge.net/DTD/sodipodi-0.dtd"
   xmlns:inkscape="http://www.inkscape.org/namespaces/inkscape"
   viewBox="0 0 576 512"
   version="1.1"
   id="svg4"
   sodipodi:docname="cart-arrow-down.svg"
   inkscape:version="0.92.4 (5da689c313, 2019-01-14)"
   inkscape:export-filename="C:\Users\tpujo\Pictures\svg\cart-arrow-down.png"
   inkscape:export-xdpi="33.33334"
   inkscape:export-ydpi="33.33334">
  <metadata
     id="metadata10">
    <rdf:RDF>
      <cc:Work
         rdf:about="">
        <dc:format>image/svg+xml</dc:format>
        <dc:type
           rdf:resource="http://purl.org/dc/dcmitype/StillImage" />
      </cc:Work>
    </rdf:RDF>
  </metadata>
  <defs
     id="defs8" />
  <sodipodi:namedview
     pagecolor="#ffffff"
     bordercolor="#666666"
     borderopacity="1"
     objecttolerance="10"
     gridtolerance="10"
     guidetolerance="10"
     inkscape:pageopacity="0"
     inkscape:pageshadow="2"
     inkscape:window-width="1920"
     inkscape:window-height="986"
     id="namedview6"
     showgrid="false"
     inkscape:zoom="0.921875"
     inkscape:cx="174.89687"
     inkscape:cy="172.15075"
     inkscape:window-x="-11"
     inkscape:window-y="-11"
     inkscape:window-maximized="1"
     inkscape:current-layer="svg4" />
  <!-- Font Awesome Free 5.15.1 by @fontawesome - https://fontawesome.com License - https://fontawesome.com/license/free (Icons: CC BY 4.0, Fonts: SIL OFL 1.1, Code: MIT License) -->
  <path
     d="M 71.282851,320 H 364.42785 l -6.545,32 H 89.464851 c -15.401,0 -26.816,14.301 -23.403,29.319 l 5.517,24.276 c -18.691,9.073 -31.579,28.233 -31.579,50.405 0,31.202 25.519,56.444 56.824,55.994 29.822999,-0.429 54.349999,-24.631 55.154999,-54.447 0.44,-16.287 -6.085,-31.049 -16.803,-41.548 h 209.648 c -10.377,10.166 -16.824,24.327 -16.824,40.001 0,31.813 26.528,57.431 58.67,55.938 28.54,-1.325 51.751,-24.385 53.251,-52.917 1.158,-22.034 -10.436,-41.455 -28.051,-51.586 L 482.11685,64 h 69.883 c 13.255,0 24,-10.745 24,-24 V 24 c 0,-13.255 -10.745,-24 -24,-24 h -102.529 c -11.401,0 -21.228,8.021 -23.513,19.19 L 416.79185,64 H 24.009851 C 8.6088514,64 -2.8061486,78.301 0.60685138,93.319 l 47.27299962,208 c 2.483,10.927 12.197,18.681 23.403,18.681 z m 12.716999,-38 -40,-184 h 24 l 40,184 h 22.81371 L 101.99985,98 h 24 l 30.16964,184 h 22.64407 L 157.99985,98 h 26 l 20.16964,184 h 22.64407 L 221.99985,98 h 34 l -3.83036,184 h 22.64407 L 293.99985,98 h 26 l -19.83036,184 h 20.64407 L 349.99985,98 h 26 l -29.83036,184 h 22.64407 L 407.99985,98 h 26 l -39.83036,184 h 9.04159 z"
     id="path2"
     inkscape:connector-curvature="0"
     sodipodi:nodetypes="sccsscsccccsccccsssssccsccscccccccccccccccccccccccccccccc" />
</svg>
