<?xml version="1.0" encoding="UTF-8" standalone="no"?>
<!-- Generator: Adobe Illustrator 19.0.0, SVG Export Plug-In . SVG Version: 6.00 Build 0)  -->

<svg
   xmlns:dc="http://purl.org/dc/elements/1.1/"
   xmlns:cc="http://creativecommons.org/ns#"
   xmlns:rdf="http://www.w3.org/1999/02/22-rdf-syntax-ns#"
   xmlns:svg="http://www.w3.org/2000/svg"
   xmlns="http://www.w3.org/2000/svg"
   xmlns:sodipodi="http://sodipodi.sourceforge.net/DTD/sodipodi-0.dtd"
   xmlns:inkscape="http://www.inkscape.org/namespaces/inkscape"
   version="1.1"
   id="Layer_1"
   x="0px"
   y="0px"
   viewBox="0 0 512 512"
   style="enable-background:new 0 0 512 512;"
   xml:space="preserve"
   sodipodi:docname="50.svg"
   inkscape:version="0.92.3 (2405546, 2018-03-11)"><metadata
   id="metadata55"><rdf:RDF><cc:Work
       rdf:about=""><dc:format>image/svg+xml</dc:format><dc:type
         rdf:resource="http://purl.org/dc/dcmitype/StillImage" /><dc:title /></cc:Work></rdf:RDF></metadata><defs
   id="defs53" /><sodipodi:namedview
   pagecolor="#ffffff"
   bordercolor="#666666"
   borderopacity="1"
   objecttolerance="10"
   gridtolerance="10"
   guidetolerance="10"
   inkscape:pageopacity="0"
   inkscape:pageshadow="2"
   inkscape:window-width="1920"
   inkscape:window-height="1001"
   id="namedview51"
   showgrid="false"
   showguides="true"
   inkscape:guide-bbox="true"
   inkscape:zoom="1.84375"
   inkscape:cx="339.41335"
   inkscape:cy="230.06406"
   inkscape:window-x="-9"
   inkscape:window-y="-9"
   inkscape:window-maximized="1"
   inkscape:current-layer="g14" />
<g
   id="g18">
	<g
   id="g16">
		<g
   id="g14">
			<path
   d="m 382.87611,461.62019 c 12.56597,-0.19822 26.8088,-0.42099 37.36812,-9.25295 10.55856,-8.83131 13.29609,-22.81115 15.71153,-35.14359 1.50924,-7.70648 3.07105,-15.6759 6.18506,-19.76799 3.35745,-4.41044 10.83645,-8.17332 18.06867,-11.81195 11.03095,-5.55135 23.534,-11.8412 29.02193,-23.97449 5.57923,-12.33741 2.00446,-26.00848 -1.15011,-38.06897 -2.01728,-7.71748 -4.1043,-15.69604 -3.04351,-20.91804 1.07411,-5.28399 6.13297,-11.85149 11.02706,-18.20295 7.5837,-9.83958 16.17754,-20.99338 15.87169,-34.44709 -0.30433,-13.39111 -9.37461,-24.12003 -17.37513,-33.57308 -5.20166,-6.15043 -10.57552,-12.50361 -11.91018,-17.79488 -1.28333,-5.08649 0.41501,-13.09843 2.0557,-20.84573 2.59549,-12.24967 5.53895,-26.13449 -0.67998,-38.28621 -6.00408,-11.73433 -18.71051,-17.3947 -29.92167,-22.38803 -7.46304,-3.32554 -15.18224,-6.76404 -18.81421,-11.10636 -3.63133,-4.34155 -5.65128,-12.54698 -7.60442,-20.482375 -2.93384,-11.916592 -6.25747,-25.418344 -16.74733,-33.408538 -10.86116,-8.268894 -25.04751,-7.82741 -37.56461,-7.436713 -7.91608,0.246117 -16.09987,0.50104 -20.87881,-1.660386 -4.97205,-2.24891 -10.27379,-8.654587 -15.40949,-14.867995 -7.89455,-9.543 -16.84683,-20.3693151 -29.97394,-23.0365731 -13.18718,-2.6782873 -25.68437,3.8087318 -36.7095,9.5338211 -7.11651,3.694366 -14.47414,7.513494 -19.86543,7.635954 -5.32728,0.121062 -12.81132,-3.343354 -20.05137,-6.693749 C 219.17242,10.3853 206.34922,4.4497276 193.2199,7.7603968 180.30841,11.016642 171.90607,22.212348 164.49233,32.088372 c -4.85979,6.476615 -9.88462,13.172087 -14.81906,15.697102 -4.57744,2.342423 -12.69667,2.470345 -20.54922,2.592917 C 116.5586,50.578786 102.315,50.8022 91.756449,59.633517 81.197895,68.464831 78.460357,82.444665 76.044788,94.778511 c -1.509912,7.705709 -3.071064,15.675909 -6.18429,19.767349 -3.357451,4.41044 -10.836437,8.17332 -18.068665,11.81195 -11.031588,5.55058 -23.535412,11.84108 -29.02398,23.97359 -5.579229,12.33741 -2.003818,26.00926 1.149347,38.06962 2.018043,7.71685 4.104937,15.69681 3.04492,20.91816 -1.074112,5.284 -6.13426,11.84996 -11.027579,18.20078 -7.5837026,9.83959 -16.17894438,20.99325 -15.87245955,34.44774 0.30368174,13.39033 9.37229425,24.11414 17.37513855,33.57307 5.200122,6.15171 10.576152,12.50437 11.910169,17.79488 1.282564,5.08714 -0.415008,13.09843 -2.056465,20.84638 -2.595485,12.24966 -5.53895,26.13448 0.679972,38.2862 6.005874,11.73023 18.710645,17.3933 29.922318,22.3888 7.46381,3.3249 15.183011,6.76341 18.814341,11.10495 3.631969,4.34232 5.651924,12.54775 7.605063,20.48315 2.408977,9.78342 5.080332,20.63803 11.765571,28.63078 1.457022,1.74199 3.103675,3.34753 4.981121,4.77699 10.86115,8.26889 25.0475,7.82741 37.56459,7.43671 7.91609,-0.24611 16.09989,-0.50104 20.87882,1.66039 4.97205,2.24891 10.2747,8.66035 15.40949,14.86799 7.89288,9.53788 16.84748,20.37008 29.97395,23.03657 13.18717,2.67829 25.68436,-3.80873 36.70949,-9.53381 7.11651,-3.69437 14.47414,-7.5135 19.86543,-7.63596 5.32728,-0.12106 12.81132,3.34335 20.05136,6.69374 11.31378,5.23603 24.13773,11.17096 37.26628,7.86093 12.9115,-3.25624 21.31307,-14.4513 28.72681,-24.32733 4.86043,-6.47585 9.8868,-13.1726 14.82201,-15.69826 4.5782,-2.34306 12.69667,-2.47034 20.54857,-2.59368 z m -0.34998,-22.25836 c -10.39978,0.16331 -21.15292,0.33275 -30.34129,5.0352 -9.51187,4.86744 -16.10585,13.65367 -22.48319,22.15179 -5.45169,7.26372 -11.08936,14.77423 -16.36604,16.10451 -5.48734,1.38392 -14.1216,-2.61244 -22.47292,-6.47784 -9.54448,-4.4175 -19.41418,-8.98535 -29.90729,-8.7466 -10.55571,0.24028 -20.24603,5.27001 -29.61502,10.13527 -8.13331,4.22282 -16.54268,8.58789 -22.02199,7.47508 -5.41785,-1.10164 -11.43061,-8.37145 -17.25178,-15.40906 -6.74533,-8.15498 -13.72266,-16.59047 -23.39035,-20.96357 -9.4842,-4.28931 -20.29273,-3.95229 -30.74598,-3.62692 -9.24734,0.28796 -18.80861,0.58559 -23.38727,-2.89972 -4.233,-3.22167 -6.46267,-12.26856 -8.61613,-21.01548 -2.55874,-10.39734 -5.20455,-21.14817 -12.143849,-29.44467 -6.939952,-8.29727 -17.052428,-12.80157 -26.833022,-17.15845 -8.228554,-3.66563 -16.744782,-7.45696 -19.16304,-12.1952 -2.620485,-5.12184 -0.638172,-14.48073 1.279659,-23.53016 2.168046,-10.23257 4.410234,-20.81134 1.863566,-30.90591 -2.303453,-9.1351 -8.13399,-16.74503 -14.196898,-23.99373 -0.764761,-0.91433 -1.536175,-1.82571 -2.302331,-2.73235 -5.892372,-6.97155 -11.991694,-14.17807 -12.117086,-19.70379 -0.128071,-5.59127 5.656082,-13.09655 11.250036,-20.3554 6.444037,-8.36228 13.108676,-17.00945 15.21096,-27.35649 2.088304,-10.2858 -0.662459,-20.80674 -3.323357,-30.98176 -2.32838,-8.90306 -4.734902,-18.10839 -2.402846,-23.26471 2.242786,-4.9591 10.632182,-9.17971 18.745269,-13.26308 9.489381,-4.7743 19.304194,-9.7113 25.776915,-18.2123 6.253278,-8.21315 8.3201,-18.76779 10.318287,-28.974311 1.788754,-9.1305 3.638647,-18.572877 8.149717,-22.346003 4.51107,-3.773117 14.13099,-3.924244 23.43595,-4.070072 10.39901,-0.162657 21.15138,-0.331465 30.34269,-5.035074 9.51111,-4.866795 16.10444,-13.653785 22.48178,-22.151914 5.45169,-7.263708 11.08936,-14.774226 16.36758,-16.10579 5.48733,-1.383925 14.1216,2.612447 22.47292,6.477837 9.54447,4.417495 19.41418,8.985357 29.90728,8.746601 10.55571,-0.24028 20.24603,-5.270008 29.61502,-10.135266 8.13333,-4.222828 16.54269,-8.587896 22.02201,-7.475084 5.41784,1.101655 11.42944,8.368502 17.25177,15.409065 6.74495,8.159212 13.72189,16.591108 23.39035,20.963565 9.4842,4.289315 20.29273,3.952293 30.74599,3.626927 9.24734,-0.287967 18.8086,-0.585596 23.38726,2.899715 4.23465,3.218976 6.46331,12.269331 8.61599,21.016885 2.55811,10.396579 5.20392,21.147409 12.14322,29.443909 6.93994,8.29726 17.05307,12.80233 26.8352,17.15794 8.22855,3.66562 16.73902,7.45786 19.16162,12.19506 2.62049,5.12185 0.63817,14.48074 -1.27965,23.53017 -2.16805,10.23255 -4.41024,20.81134 -1.86357,30.9059 2.59414,10.28691 9.65555,18.6312 16.49923,26.72609 5.88813,6.96337 11.99169,14.17806 12.11709,19.70379 0.12743,5.5905 -5.65608,13.09655 -11.24927,20.35476 -6.44545,8.36214 -13.10881,17.01086 -15.21109,27.35789 -2.08971,10.28568 0.66246,20.80675 3.32195,30.98164 2.32838,8.90305 4.73567,18.10775 2.40361,23.26407 -2.24278,4.9591 -10.63141,9.17907 -18.74373,13.26178 -9.48938,4.77432 -19.30432,9.71273 -25.7755,18.21243 -6.25393,8.21239 -8.32151,18.76768 -10.32047,28.97484 -1.78956,9.13113 -3.63937,18.57353 -8.14972,22.34599 -4.5103,3.77248 -14.13405,3.92682 -23.43824,4.072 z"
   id="path2"
   inkscape:connector-curvature="0" />
			<path
   d="M 392.60341,141.74373 C 329.60176,66.420163 217.0665,56.396306 141.74369,119.39731 66.420892,182.39832 56.395627,294.93346 119.39728,370.25703 c 63.00164,75.32356 175.53691,85.34742 250.85971,22.34641 75.3228,-63.001 85.34806,-175.53614 22.34642,-250.85971 z M 136.47276,355.97486 C 81.347113,290.0677 90.118693,191.59842 156.02585,136.47279 c 65.90717,-55.125639 164.3758,-46.354828 219.50208,19.5531 55.12628,65.90794 46.35483,164.37579 -19.5531,219.50208 -65.90793,55.12628 -164.3758,46.35482 -219.50207,-19.55311 z"
   id="path4"
   inkscape:connector-curvature="0" />
			<path
   d="m 371.99931,203.09436 c -2.47091,-2.408 -6.12214,-1.69541 -8.15856,1.59221 l -52.28903,84.47132 c -2.03492,3.28735 -1.6822,7.90559 0.78782,10.31509 1.23553,1.20462 2.7659,1.6282 4.24193,1.34015 1.47603,-0.28807 2.89818,-1.28849 3.91566,-2.93213 l 52.28896,-84.47199 c 2.0359,-3.28818 2.7736,-8.18962 -0.78669,-10.31463 z"
   id="path6"
   inkscape:connector-curvature="0"
   style="stroke-width:0.58707929"
   sodipodi:nodetypes="ccccccccc" />
			
			<path
   d="m 333.45416,224.91173 c -2.93225,-12.3373 -14.93743,-19.9255 -26.76188,-16.91654 -11.82445,3.00894 -19.05886,15.49357 -16.12673,27.83034 2.93211,12.33677 14.93742,19.92549 26.76186,16.91655 11.82444,-3.00893 19.05875,-15.4941 16.12675,-27.83035 z m -31.45154,8.00342 c -1.3683,-5.75699 2.00833,-11.58335 7.52572,-12.98734 5.5174,-1.40401 11.12047,2.1373 12.48875,7.8943 1.36827,5.75699 -2.00835,11.58336 -7.52573,12.98736 -5.51739,1.404 -11.12047,-2.13731 -12.48874,-7.89432 z"
   id="path10"
   inkscape:connector-curvature="0"
   style="stroke-width:0.54042041" />
			<path
   d="m 368.37471,248.04198 c -11.82496,3.00907 -19.05884,15.49354 -16.12674,27.83035 2.93212,12.33678 14.93743,19.92549 26.76188,16.91655 11.82444,-3.00895 19.05887,-15.49355 16.12674,-27.83036 -2.93225,-12.33731 -14.93742,-19.92548 -26.76188,-16.91654 z m 7.79909,32.81428 c -5.51794,1.40412 -11.1206,-2.13786 -12.48875,-7.89433 -1.36815,-5.75644 2.00834,-11.58333 7.52572,-12.98733 5.51738,-1.40401 11.1206,2.13786 12.48876,7.8943 1.36816,5.75645 -2.00732,11.58311 -7.52573,12.98736 z"
   id="path12"
   inkscape:connector-curvature="0"
   style="stroke-width:0.54042041" />
		<g
   aria-label="-50"
   transform="matrix(0.98199413,2.3744002e-4,-0.05169925,1.0183235,0,0)"
   style="font-style:normal;font-weight:normal;font-size:53.49441147px;line-height:1.25;font-family:sans-serif;letter-spacing:0px;word-spacing:0px;fill:#000000;fill-opacity:1;stroke:none;stroke-width:1.33736026"
   id="text4599"><path
     d="m 138.84147,275.79201 q -3.27799,0 -5.31901,-1.85547 -2.04101,-1.85546 -2.04101,-4.76237 0,-1.79362 0.98958,-4.57682 1.05143,-2.84505 2.16471,-3.89648 2.84505,-2.65951 11.93685,-2.65951 6.43229,0 9.2155,1.17513 2.7832,1.17513 2.7832,4.02018 0,3.278 -1.73177,5.69011 -1.60808,2.22656 -5.8138,3.83463 -8.22592,3.0306 -12.18425,3.0306 z"
     style="font-style:normal;font-variant:normal;font-weight:normal;font-stretch:normal;font-size:126.66666412px;font-family:Forte;-inkscape-font-specification:'Forte, Normal';font-variant-ligatures:normal;font-variant-caps:normal;font-variant-numeric:normal;font-feature-settings:normal;text-align:start;writing-mode:lr-tb;text-anchor:start;stroke-width:1.33736026"
     id="path31" /><path
     d="m 191.78418,230.45673 -4.57682,8.10221 0.24739,0.2474 q 4.39128,-1.85547 7.79297,-2.65951 3.40169,-0.80404 6.67969,-0.80404 8.4733,0 13.17383,4.02019 4.70052,3.95833 4.70052,11.19466 0,3.58724 -1.05144,7.60742 -0.98958,3.95833 -3.0306,8.04036 -1.97916,4.02019 -4.82421,7.91667 -2.78321,3.89649 -6.92709,8.10221 -6.06119,6.12305 -12.18424,9.58659 -6.0612,3.46354 -10.88542,3.46354 -3.52539,0 -6.92708,-1.36067 -3.40169,-1.42253 -5.99935,-3.95834 -4.57682,-4.57682 -4.57682,-12.92643 0,-11.13281 6.37044,-17.4414 3.1543,-3.21615 7.36003,-5.25717 4.26757,-2.10286 7.42187,-2.10286 3.33984,0 3.33984,1.85547 v 0.18555 q -2.6595,3.15429 -4.02018,5.38086 -1.29883,2.16471 -2.72135,5.87565 -2.41211,6.18489 -2.41211,14.4108 0,6.37045 2.53581,6.37045 3.27799,0 7.11263,-3.83464 4.20572,-4.39128 7.29817,-10.88542 3.09245,-6.49414 3.09245,-11.00911 0,-6.30859 -2.6595,-9.27734 -2.59766,-3.0306 -8.34961,-3.0306 -3.21615,0 -8.65886,1.17513 -2.96875,0.49479 -3.15429,0.49479 -1.79362,0 -3.0306,-1.17513 -1.17513,-1.23698 -1.17513,-3.1543 0,-1.60807 1.66992,-6.67969 2.6595,-8.53515 5.5664,-15.46223 l 0.3711,-0.86589 q 0.30924,-0.61849 1.05143,-2.28841 1.79362,-4.39128 3.1543,-5.50456 1.42252,-1.11328 5.07161,-1.11328 11.68945,0 17.62695,0.2474 1.36068,0 2.35026,0.12369 h 0.80404 q 4.63867,0.2474 6.30859,0.80404 1.66993,0.55664 1.66993,1.73177 0,1.05143 -1.42253,3.21615 -1.36068,2.10286 -3.40169,4.02018 -3.46354,3.46354 -7.17448,5.38086 -3.71094,1.85547 -7.29818,1.85547 -1.54622,0 -4.88607,-0.3711 -0.98958,-0.24739 -1.05143,-0.24739 z"
     style="font-style:normal;font-variant:normal;font-weight:normal;font-stretch:normal;font-size:126.66666412px;font-family:Forte;-inkscape-font-specification:'Forte, Normal';font-variant-ligatures:normal;font-variant-caps:normal;font-variant-numeric:normal;font-feature-settings:normal;text-align:start;writing-mode:lr-tb;text-anchor:start;stroke-width:1.33736026"
     id="path33" /><path
     d="m 274.16699,215.48928 h 0.61849 q 3.33984,0 6.37044,3.0306 3.09245,3.0306 4.88607,8.10221 1.79362,5.07162 1.79362,10.63802 0,5.62826 -1.60808,12.55534 -1.60807,6.86524 -4.32942,13.23568 -2.65951,6.37044 -6.49414,12.36979 -3.77279,5.99935 -7.85482,9.95768 -9.64844,9.77214 -19.72982,9.77214 -6.74154,0 -11.875,-3.33985 -5.13346,-3.40169 -7.91667,-9.58659 -2.7832,-6.24674 -2.7832,-14.2871 0,-13.85417 5.75195,-26.53321 5.81381,-12.74088 15.33855,-20.5957 9.52473,-7.85482 19.60611,-7.85482 4.88607,0 8.22592,2.53581 z m -5.56641,2.9069 1.11328,-0.61849 -0.24739,-0.24739 q -3.95834,0.0618 -8.16407,4.02018 -4.14388,3.89648 -7.48372,10.08138 -3.33984,6.18489 -5.44271,13.97786 -2.10286,7.79297 -2.10286,14.72005 0,5.00977 1.73177,10.32878 1.79362,5.25716 4.45312,8.78255 2.72136,3.52539 5.19531,3.52539 1.91732,0 4.02019,-2.53581 2.10286,-2.59765 3.83463,-7.29817 1.79362,-4.51498 3.09245,-9.46289 1.29883,-4.94792 1.97917,-9.77214 0.68034,-4.82422 0.68034,-8.78255 0,-6.24674 -2.04102,-11.875 -1.97917,-5.6901 -5.19531,-8.41146 -0.61849,-0.43294 -0.61849,-0.86588 0,-1.42253 5.19531,-5.56641 z"
     style="font-style:normal;font-variant:normal;font-weight:normal;font-stretch:normal;font-size:126.66666412px;font-family:Forte;-inkscape-font-specification:'Forte, Normal';font-variant-ligatures:normal;font-variant-caps:normal;font-variant-numeric:normal;font-feature-settings:normal;text-align:start;writing-mode:lr-tb;text-anchor:start;stroke-width:1.33736026"
     id="path35" /></g>
<path
   style="fill:#ececec;fill-opacity:1;stroke:none;stroke-width:0;stroke-miterlimit:4;stroke-dasharray:none;stroke-opacity:1"
   d="m 239.54647,410.6661 c -52.95482,-6.09069 -98.43487,-37.41599 -122.00138,-84.03093 -8.718,-17.24434 -13.71277,-33.71179 -16.12179,-53.15254 -0.9057,-7.30902 -0.91017,-27.34854 -0.008,-34.71187 3.51347,-28.66775 13.56521,-53.81432 30.67729,-76.74576 6.40268,-8.58007 21.2039,-23.37375 29.89429,-29.87908 36.59893,-27.3967 80.8348,-37.398809 125.52392,-28.38203 23.46688,4.73483 46.40081,15.48534 65.66252,30.77998 6.91262,5.48892 18.88457,17.49599 24.42642,24.49808 23.85083,30.13535 35.69099,67.32775 33.56085,105.42166 -2.46367,44.0585 -23.35436,85.07371 -57.17506,112.25317 -23.99962,19.28692 -51.06256,30.51301 -81.89696,33.97206 -5.64926,0.63374 -26.96416,0.61885 -32.54237,-0.0227 z M 169.06065,299.46147 c 9.8688,-3.69239 23.61482,-17.16436 29.55104,-28.96189 1.2008,-2.38644 2.66507,-6.04669 3.25394,-8.13387 1.31591,-4.66414 1.42428,-11.39214 0.22962,-14.25644 -3.30143,-7.91545 -13.93551,-10.76399 -25.61105,-6.86041 -2.16899,0.72518 -4.05229,1.31851 -4.1851,1.31851 -0.13281,0 0.74961,-1.64746 1.96094,-3.66101 l 2.20241,-3.66102 5.23692,-0.003 c 4.64817,-0.002 5.55212,-0.16852 8.04046,-1.4784 6.05536,-3.18748 12.6541,-10.10712 12.6541,-13.26937 0,-2.19871 -1.91558,-2.50238 -17.35594,-2.75143 -14.34499,-0.23138 -14.37595,-0.22941 -15.95392,1.01601 -2.26683,1.78909 -7.60451,13.47003 -11.9122,26.06853 -1.67423,4.89654 -1.77939,6.9406 -0.44204,8.59216 1.12056,1.38383 3.5067,1.54396 7.96918,0.53481 4.49137,-1.01568 10.19609,-0.86243 12.22997,0.32856 3.17752,1.86067 4.01977,3.57886 4.23121,8.63163 0.2279,5.44597 -0.86962,9.26883 -4.47975,15.60378 -3.03569,5.32695 -6.44095,9.38565 -9.50475,11.32866 -4.79603,3.04155 -6.42579,1.36513 -5.77669,-5.94211 0.77097,-8.67915 3.37223,-15.92233 7.82839,-21.79807 1.23821,-1.63265 2.25128,-3.25022 2.25128,-3.5946 0,-2.562 -5.30942,-2.32833 -10.99025,0.48368 -9.39779,4.65191 -14.50127,13.25608 -14.50127,24.44831 0,5.08543 1.12353,8.77969 3.52254,11.58239 4.85463,5.67155 11.9456,7.27983 19.55096,4.4343 z m 150.17944,-0.0805 c 2.23097,-2.12895 53.81342,-85.39576 54.94556,-88.69571 1.06608,-3.10738 0.53371,-5.65664 -1.54689,-7.40734 -2.37989,-2.00256 -4.12922,-2.29556 -6.36654,-1.06636 -1.58534,0.871 -6.1295,7.89754 -28.8536,44.61574 -18.1805,29.37652 -27.07606,44.23317 -27.29142,45.57994 -0.45326,2.83458 0.50185,5.72666 2.4259,7.34565 2.29455,1.93073 4.3965,1.81382 6.68699,-0.37192 z m -83.91736,0.0547 c 4.62474,-1.7174 8.59327,-4.4403 13.23327,-9.07963 11.16257,-11.16095 20.80587,-32.14829 21.95396,-47.77981 0.79895,-10.87799 -3.56659,-21.15044 -9.71193,-22.8529 -1.24768,-0.34565 -3.36682,-1.14373 -4.70919,-1.77353 -1.8313,-0.85917 -3.4563,-1.13783 -6.50847,-1.11606 -21.03526,0.15002 -42.30509,29.42805 -42.30509,58.23317 0,12.33691 4.454,20.76214 12.78688,24.18777 4.33453,1.78192 10.74476,1.85794 15.26057,0.18099 z m 147.32329,-7.67393 c 3.75901,-1.72094 8.36778,-5.97815 10.28473,-9.50022 5.28635,-9.71276 3.52964,-21.45826 -4.31969,-28.88184 -10.31161,-9.75228 -26.43209,-7.58061 -33.71511,4.54194 -3.95134,6.57697 -4.48144,15.45584 -1.32544,22.20006 2.8127,6.0106 8.00218,10.75705 13.85991,12.67667 3.70849,1.2153 11.44859,0.68798 15.2156,-1.03661 z M 131.47027,278.95433 c 7.52713,-2.50767 10.72027,-5.6538 10.72027,-10.56246 0,-4.27424 -1.78308,-5.30388 -9.77285,-5.64332 -10.27827,-0.43667 -14.15676,1.16656 -16.2305,6.70914 -1.3333,3.56353 -1.4169,6.20743 -0.26664,8.43179 1.87367,3.62328 6.84778,3.9639 15.54972,1.06485 z m 187.30161,-26.43445 c 6.76457,-2.26495 12.29597,-8.00186 14.40269,-14.93778 1.71396,-5.64284 1.30749,-11.8464 -1.12079,-17.10576 -2.19336,-4.75053 -6.63224,-9.24956 -11.27004,-11.42275 -2.78641,-1.30566 -3.77101,-1.46927 -8.8419,-1.46927 -5.35155,0 -5.93078,0.11051 -9.31684,1.77746 -13.97239,6.87858 -17.25757,25.629 -6.50449,37.1249 2.77084,2.96226 5.99884,5.05354 9.4794,6.1413 3.26326,1.01984 9.96755,0.96482 13.17197,-0.1081 z"
   id="path838"
   inkscape:connector-curvature="0" /><path
   style="fill:#ececec;fill-opacity:1;stroke:none;stroke-width:0;stroke-miterlimit:4;stroke-dasharray:none;stroke-opacity:1"
   d="m 236.52061,287.31805 c -3.07913,-1.66399 -6.4283,-8.85672 -7.53814,-16.18902 -0.75643,-4.99737 -0.16893,-10.8258 1.86756,-18.52776 3.86921,-14.63322 13.04664,-28.31813 20.35746,-30.35597 1.08482,-0.30238 0.84718,0.0678 -1.18857,1.8515 -3.38245,2.96367 -3.63681,3.94289 -1.62066,6.23916 1.86144,2.12006 3.5066,6.20094 4.46622,11.07857 1.81074,9.20381 -1.53336,26.28407 -7.6059,38.84776 -3.06772,6.34689 -5.867,8.60728 -8.73797,7.05576 z"
   id="path840"
   inkscape:connector-curvature="0" /><path
   style="fill:#ececec;fill-opacity:1;stroke:none;stroke-width:0;stroke-miterlimit:4;stroke-dasharray:none;stroke-opacity:1"
   d="m 371.28231,280.776 c -3.68046,-0.99383 -6.53112,-3.94986 -7.53437,-7.81288 -0.32748,-1.26096 -0.33309,-3.83149 -0.0113,-5.15254 0.77582,-3.18458 3.27013,-6.14539 6.16966,-7.32358 5.77393,-2.34615 12.21133,1.13953 13.71908,7.42854 0.5232,2.18233 0.2833,4.91944 -0.60692,6.92443 -1.33024,2.99601 -4.00409,5.27554 -7.0231,5.98736 -1.17739,0.27761 -3.59233,0.25131 -4.71309,-0.0513 z"
   id="path842"
   inkscape:connector-curvature="0" /><path
   style="fill:#ececec;fill-opacity:1;stroke:none;stroke-width:0;stroke-miterlimit:4;stroke-dasharray:none;stroke-opacity:1"
   d="m 310.06422,240.82996 c -3.89384,-0.85864 -6.88056,-3.76921 -7.9505,-7.74777 -0.22034,-0.81934 -0.28727,-1.46312 -0.28727,-2.76314 0,-2.05945 0.28155,-3.24977 1.18027,-4.98985 1.82433,-3.53223 5.11747,-5.58642 8.9558,-5.58642 4.5582,0 8.40617,2.96581 9.8518,7.59322 0.27601,0.88353 0.31759,1.29268 0.31688,3.11864 -8.2e-4,2.01504 -0.0188,2.15316 -0.43601,3.34972 -0.73924,2.11994 -1.78207,3.66315 -3.34853,4.95524 -2.2588,1.86316 -5.52244,2.67897 -8.28244,2.07036 z"
   id="path844"
   inkscape:connector-curvature="0" /><path
   style="fill:#d2d2d2;fill-opacity:1;stroke:none;stroke-width:0;stroke-miterlimit:4;stroke-dasharray:none;stroke-opacity:1"
   d="m 208.17291,484.37396 c -3.64394,-1.34624 -7.94783,-5.4081 -16.17477,-15.26514 -12.69242,-15.20733 -19.96765,-20.64317 -30.95471,-23.12846 -4.58222,-1.03652 -6.92208,-1.16665 -22.47076,-1.24977 -14.5549,-0.0778 -17.79598,-0.23837 -20.08258,-0.99495 -5.68815,-1.88206 -8.05557,-6.25076 -12.40855,-22.898 -3.56678,-13.64057 -4.46781,-16.32089 -7.335367,-21.82055 -5.614074,-10.76718 -11.880233,-15.70311 -30.95316,-24.38222 -13.614639,-6.19531 -17.796882,-8.89321 -19.958841,-12.87512 -1.608633,-2.96279 -1.120919,-10.36866 1.520698,-23.09161 1.829206,-8.81008 2.364174,-12.65475 2.576558,-18.51699 0.523038,-14.43686 -2.448754,-21.28721 -16.66479,-38.41444 -7.416575,-8.93535 -9.238955,-11.41352 -11.067812,-15.05054 -3.169281,-6.3027 -1.529847,-10.60175 9.818179,-25.74599 10.862413,-14.49618 13.996489,-20.51042 15.33693,-29.43134 1.058403,-7.0439 0.238562,-13.1764 -4.136618,-30.94239 -1.322329,-5.36949 -2.551715,-11.49147 -2.731967,-13.60441 -0.734283,-8.60731 1.92854,-11.39761 19.612747,-20.5517 17.45631,-9.0361 24.573592,-14.85913 29.019998,-23.74277 2.741548,-5.47745 4.338424,-10.74581 6.768249,-22.3296 3.175146,-15.136999 4.314546,-18.64805 7.142136,-22.008449 3.3107,-3.934536 7.30317,-4.809482 24.86623,-5.449405 16.96984,-0.618308 21.55129,-1.325423 28.39123,-4.381979 7.69719,-3.439637 13.66528,-9.02254 23.67656,-22.148463 10.74622,-14.08951 13.88663,-16.834073 19.26199,-16.834073 4.26093,0 7.29372,1.013402 20.47798,6.842662 16.08501,7.111788 19.13807,7.977262 28.32783,8.030319 6.81021,0.03932 7.70116,-0.07916 12.74576,-1.69491 2.98305,-0.955451 10.79322,-4.39422 17.35594,-7.641709 13.15582,-6.510021 16.52315,-7.817112 20.26357,-7.86569 5.08191,-0.066 8.64469,2.747228 19.0914,15.074861 11.35739,13.402292 17.40179,18.689611 24.79633,21.690536 6.95931,2.824294 9.87078,3.158658 28.59446,3.283896 19.68629,0.131677 22.16837,0.509285 25.32351,3.852569 2.49922,2.648245 4.63064,8.177873 7.704,19.986788 3.40417,13.079987 4.32578,15.881147 7.09068,21.551317 4.90278,10.05448 12.45428,16.23408 29.03435,23.7596 15.0073,6.81167 20.05802,9.94767 22.10745,13.72657 1.62199,2.99077 1.15207,10.334 -1.4803,23.132 -4.00981,19.49487 -3.67526,28.91833 1.38555,39.0278 2.76608,5.52552 5.13169,8.85337 13.51053,19.0061 9.42756,11.42347 11.62984,15.11699 11.6513,19.54073 0.0186,3.83228 -2.7886,8.89066 -11.22669,20.22981 -11.24983,15.11756 -14.13289,20.76201 -15.39501,30.14033 -0.84169,6.25425 0.0656,13.23503 3.6023,27.71625 3.30934,13.55028 4.01172,18.75103 2.9727,22.01119 -1.43855,4.51375 -6.78739,8.44081 -21.97529,16.13398 -12.27649,6.21845 -18.82222,11.11383 -23.35596,17.46729 -4.58732,6.42855 -6.60807,12.10705 -9.74008,27.37059 -3.07703,14.99561 -4.66448,19.52805 -7.9228,22.621 -3.51297,3.33469 -8.64369,4.25933 -26.23539,4.7281 -15.62777,0.41644 -23.0808,1.96807 -30.47553,6.34464 -4.55794,2.69761 -12.13817,10.50447 -19.15724,19.72999 -7.25675,9.53793 -11.31405,13.96727 -14.51045,15.84103 -4.6323,2.71549 -10.34628,1.41189 -27.24661,-6.21613 -12.9818,-5.85938 -19.48684,-7.72659 -26.91804,-7.72659 -7.99651,0 -14.06993,2.01562 -30.03112,9.96662 -14.54561,7.24584 -19.31582,8.7119 -23.41671,7.19682 z m 71.01235,-51.57337 c 28.15302,-3.96561 52.32448,-13.0307 75.25182,-28.22191 10.93527,-7.24549 18.34165,-13.36079 28.20339,-23.287 9.13692,-9.19663 14.95922,-16.27081 21.72071,-26.39096 24.3337,-36.42104 34.35441,-81.31645 27.92603,-125.11587 -9.65109,-65.75709 -55.10514,-120.54616 -117.98572,-142.216763 -17.50222,-6.03181 -34.28653,-9.054601 -53.42373,-9.621413 -39.06671,-1.157092 -76.87963,10.321828 -108.49467,32.935876 -8.7197,6.23715 -14.33635,11.02912 -22.51858,19.21225 -28.66972,28.67284 -46.034307,64.70268 -50.987256,105.79368 -1.943772,16.12609 -1.063778,37.54639 2.241915,54.57105 10.335034,53.22654 45.164791,99.52707 93.250111,123.96095 20.40237,10.36717 40.06945,16.23488 63.33382,18.89576 8.71569,0.99686 32.87658,0.69653 41.48216,-0.51565 z"
   id="path846"
   inkscape:connector-curvature="0" /></g>
	</g>
</g>
<g
   id="g20">
</g>
<g
   id="g22">
</g>
<g
   id="g24">
</g>
<g
   id="g26">
</g>
<g
   id="g28">
</g>
<g
   id="g30">
</g>
<g
   id="g32">
</g>
<g
   id="g34">
</g>
<g
   id="g36">
</g>
<g
   id="g38">
</g>
<g
   id="g40">
</g>
<g
   id="g42">
</g>
<g
   id="g44">
</g>
<g
   id="g46">
</g>
<g
   id="g48">
</g>
</svg>