<?xml version="1.0" encoding="UTF-8" standalone="no"?>
<!-- Generator: Adobe Illustrator 19.0.0, SVG Export Plug-In . SVG Version: 6.00 Build 0)  -->

<svg
   xmlns:dc="http://purl.org/dc/elements/1.1/"
   xmlns:cc="http://creativecommons.org/ns#"
   xmlns:rdf="http://www.w3.org/1999/02/22-rdf-syntax-ns#"
   xmlns:svg="http://www.w3.org/2000/svg"
   xmlns="http://www.w3.org/2000/svg"
   xmlns:sodipodi="http://sodipodi.sourceforge.net/DTD/sodipodi-0.dtd"
   xmlns:inkscape="http://www.inkscape.org/namespaces/inkscape"
   version="1.1"
   id="Layer_1"
   x="0px"
   y="0px"
   viewBox="0 0 512 512"
   style="enable-background:new 0 0 512 512;"
   xml:space="preserve"
   sodipodi:docname="90.svg"
   inkscape:version="0.92.4 (5da689c313, 2019-01-14)"><metadata
   id="metadata55"><rdf:RDF><cc:Work
       rdf:about=""><dc:format>image/svg+xml</dc:format><dc:type
         rdf:resource="http://purl.org/dc/dcmitype/StillImage" /><dc:title /></cc:Work></rdf:RDF></metadata><defs
   id="defs53" /><sodipodi:namedview
   pagecolor="#ffffff"
   bordercolor="#666666"
   borderopacity="1"
   objecttolerance="10"
   gridtolerance="10"
   guidetolerance="10"
   inkscape:pageopacity="0"
   inkscape:pageshadow="2"
   inkscape:window-width="1920"
   inkscape:window-height="986"
   id="namedview51"
   showgrid="false"
   showguides="true"
   inkscape:guide-bbox="true"
   inkscape:zoom="1.84375"
   inkscape:cx="351.81903"
   inkscape:cy="333.44475"
   inkscape:window-x="-11"
   inkscape:window-y="-11"
   inkscape:window-maximized="1"
   inkscape:current-layer="g14" />
<g
   id="g18">
	<g
   id="g16">
		<g
   id="g14">
			<path
   d="m 382.87611,461.62019 c 12.56597,-0.19822 26.8088,-0.42099 37.36812,-9.25295 10.55856,-8.83131 13.29609,-22.81115 15.71153,-35.14359 1.50924,-7.70648 3.07105,-15.6759 6.18506,-19.76799 3.35745,-4.41044 10.83645,-8.17332 18.06867,-11.81195 11.03095,-5.55135 23.534,-11.8412 29.02193,-23.97449 5.57923,-12.33741 2.00446,-26.00848 -1.15011,-38.06897 -2.01728,-7.71748 -4.1043,-15.69604 -3.04351,-20.91804 1.07411,-5.28399 6.13297,-11.85149 11.02706,-18.20295 7.5837,-9.83958 16.17754,-20.99338 15.87169,-34.44709 -0.30433,-13.39111 -9.37461,-24.12003 -17.37513,-33.57308 -5.20166,-6.15043 -10.57552,-12.50361 -11.91018,-17.79488 -1.28333,-5.08649 0.41501,-13.09843 2.0557,-20.84573 2.59549,-12.24967 5.53895,-26.13449 -0.67998,-38.28621 -6.00408,-11.73433 -18.71051,-17.3947 -29.92167,-22.38803 -7.46304,-3.32554 -15.18224,-6.76404 -18.81421,-11.10636 -3.63133,-4.34155 -5.65128,-12.54698 -7.60442,-20.482375 -2.93384,-11.916592 -6.25747,-25.418344 -16.74733,-33.408538 -10.86116,-8.268894 -25.04751,-7.82741 -37.56461,-7.436713 -7.91608,0.246117 -16.09987,0.50104 -20.87881,-1.660386 -4.97205,-2.24891 -10.27379,-8.654587 -15.40949,-14.867995 -7.89455,-9.543 -16.84683,-20.3693151 -29.97394,-23.0365731 -13.18718,-2.6782873 -25.68437,3.8087318 -36.7095,9.5338211 -7.11651,3.694366 -14.47414,7.513494 -19.86543,7.635954 -5.32728,0.121062 -12.81132,-3.343354 -20.05137,-6.693749 C 219.17242,10.3853 206.34922,4.4497276 193.2199,7.7603968 180.30841,11.016642 171.90607,22.212348 164.49233,32.088372 c -4.85979,6.476615 -9.88462,13.172087 -14.81906,15.697102 -4.57744,2.342423 -12.69667,2.470345 -20.54922,2.592917 C 116.5586,50.578786 102.315,50.8022 91.756449,59.633517 81.197895,68.464831 78.460357,82.444665 76.044788,94.778511 c -1.509912,7.705709 -3.071064,15.675909 -6.18429,19.767349 -3.357451,4.41044 -10.836437,8.17332 -18.068665,11.81195 -11.031588,5.55058 -23.535412,11.84108 -29.02398,23.97359 -5.579229,12.33741 -2.003818,26.00926 1.149347,38.06962 2.018043,7.71685 4.104937,15.69681 3.04492,20.91816 -1.074112,5.284 -6.13426,11.84996 -11.027579,18.20078 -7.5837026,9.83959 -16.17894438,20.99325 -15.87245955,34.44774 0.30368174,13.39033 9.37229425,24.11414 17.37513855,33.57307 5.200122,6.15171 10.576152,12.50437 11.910169,17.79488 1.282564,5.08714 -0.415008,13.09843 -2.056465,20.84638 -2.595485,12.24966 -5.53895,26.13448 0.679972,38.2862 6.005874,11.73023 18.710645,17.3933 29.922318,22.3888 7.46381,3.3249 15.183011,6.76341 18.814341,11.10495 3.631969,4.34232 5.651924,12.54775 7.605063,20.48315 2.408977,9.78342 5.080332,20.63803 11.765571,28.63078 1.457022,1.74199 3.103675,3.34753 4.981121,4.77699 10.86115,8.26889 25.0475,7.82741 37.56459,7.43671 7.91609,-0.24611 16.09989,-0.50104 20.87882,1.66039 4.97205,2.24891 10.2747,8.66035 15.40949,14.86799 7.89288,9.53788 16.84748,20.37008 29.97395,23.03657 13.18717,2.67829 25.68436,-3.80873 36.70949,-9.53381 7.11651,-3.69437 14.47414,-7.5135 19.86543,-7.63596 5.32728,-0.12106 12.81132,3.34335 20.05136,6.69374 11.31378,5.23603 24.13773,11.17096 37.26628,7.86093 12.9115,-3.25624 21.31307,-14.4513 28.72681,-24.32733 4.86043,-6.47585 9.8868,-13.1726 14.82201,-15.69826 4.5782,-2.34306 12.69667,-2.47034 20.54857,-2.59368 z m -0.34998,-22.25836 c -10.39978,0.16331 -21.15292,0.33275 -30.34129,5.0352 -9.51187,4.86744 -16.10585,13.65367 -22.48319,22.15179 -5.45169,7.26372 -11.08936,14.77423 -16.36604,16.10451 -5.48734,1.38392 -14.1216,-2.61244 -22.47292,-6.47784 -9.54448,-4.4175 -19.41418,-8.98535 -29.90729,-8.7466 -10.55571,0.24028 -20.24603,5.27001 -29.61502,10.13527 -8.13331,4.22282 -16.54268,8.58789 -22.02199,7.47508 -5.41785,-1.10164 -11.43061,-8.37145 -17.25178,-15.40906 -6.74533,-8.15498 -13.72266,-16.59047 -23.39035,-20.96357 -9.4842,-4.28931 -20.29273,-3.95229 -30.74598,-3.62692 -9.24734,0.28796 -18.80861,0.58559 -23.38727,-2.89972 -4.233,-3.22167 -6.46267,-12.26856 -8.61613,-21.01548 -2.55874,-10.39734 -5.20455,-21.14817 -12.143849,-29.44467 -6.939952,-8.29727 -17.052428,-12.80157 -26.833022,-17.15845 -8.228554,-3.66563 -16.744782,-7.45696 -19.16304,-12.1952 -2.620485,-5.12184 -0.638172,-14.48073 1.279659,-23.53016 2.168046,-10.23257 4.410234,-20.81134 1.863566,-30.90591 -2.303453,-9.1351 -8.13399,-16.74503 -14.196898,-23.99373 -0.764761,-0.91433 -1.536175,-1.82571 -2.302331,-2.73235 -5.892372,-6.97155 -11.991694,-14.17807 -12.117086,-19.70379 -0.128071,-5.59127 5.656082,-13.09655 11.250036,-20.3554 6.444037,-8.36228 13.108676,-17.00945 15.21096,-27.35649 2.088304,-10.2858 -0.662459,-20.80674 -3.323357,-30.98176 -2.32838,-8.90306 -4.734902,-18.10839 -2.402846,-23.26471 2.242786,-4.9591 10.632182,-9.17971 18.745269,-13.26308 9.489381,-4.7743 19.304194,-9.7113 25.776915,-18.2123 6.253278,-8.21315 8.3201,-18.76779 10.318287,-28.974311 1.788754,-9.1305 3.638647,-18.572877 8.149717,-22.346003 4.51107,-3.773117 14.13099,-3.924244 23.43595,-4.070072 10.39901,-0.162657 21.15138,-0.331465 30.34269,-5.035074 9.51111,-4.866795 16.10444,-13.653785 22.48178,-22.151914 5.45169,-7.263708 11.08936,-14.774226 16.36758,-16.10579 5.48733,-1.383925 14.1216,2.612447 22.47292,6.477837 9.54447,4.417495 19.41418,8.985357 29.90728,8.746601 10.55571,-0.24028 20.24603,-5.270008 29.61502,-10.135266 8.13333,-4.222828 16.54269,-8.587896 22.02201,-7.475084 5.41784,1.101655 11.42944,8.368502 17.25177,15.409065 6.74495,8.159212 13.72189,16.591108 23.39035,20.963565 9.4842,4.289315 20.29273,3.952293 30.74599,3.626927 9.24734,-0.287967 18.8086,-0.585596 23.38726,2.899715 4.23465,3.218976 6.46331,12.269331 8.61599,21.016885 2.55811,10.396579 5.20392,21.147409 12.14322,29.443909 6.93994,8.29726 17.05307,12.80233 26.8352,17.15794 8.22855,3.66562 16.73902,7.45786 19.16162,12.19506 2.62049,5.12185 0.63817,14.48074 -1.27965,23.53017 -2.16805,10.23255 -4.41024,20.81134 -1.86357,30.9059 2.59414,10.28691 9.65555,18.6312 16.49923,26.72609 5.88813,6.96337 11.99169,14.17806 12.11709,19.70379 0.12743,5.5905 -5.65608,13.09655 -11.24927,20.35476 -6.44545,8.36214 -13.10881,17.01086 -15.21109,27.35789 -2.08971,10.28568 0.66246,20.80675 3.32195,30.98164 2.32838,8.90305 4.73567,18.10775 2.40361,23.26407 -2.24278,4.9591 -10.63141,9.17907 -18.74373,13.26178 -9.48938,4.77432 -19.30432,9.71273 -25.7755,18.21243 -6.25393,8.21239 -8.32151,18.76768 -10.32047,28.97484 -1.78956,9.13113 -3.63937,18.57353 -8.14972,22.34599 -4.5103,3.77248 -14.13405,3.92682 -23.43824,4.072 z"
   id="path2"
   inkscape:connector-curvature="0" />
			<path
   d="M 392.60341,141.74373 C 329.60176,66.420163 217.0665,56.396306 141.74369,119.39731 66.420892,182.39832 56.395627,294.93346 119.39728,370.25703 c 63.00164,75.32356 175.53691,85.34742 250.85971,22.34641 75.3228,-63.001 85.34806,-175.53614 22.34642,-250.85971 z M 136.47276,355.97486 C 81.347113,290.0677 90.118693,191.59842 156.02585,136.47279 c 65.90717,-55.125639 164.3758,-46.354828 219.50208,19.5531 55.12628,65.90794 46.35483,164.37579 -19.5531,219.50208 -65.90793,55.12628 -164.3758,46.35482 -219.50207,-19.55311 z"
   id="path4"
   inkscape:connector-curvature="0" />
			<path
   d="m 371.99931,203.09436 c -2.47091,-2.408 -6.12214,-1.69541 -8.15856,1.59221 l -52.28903,84.47132 c -2.03492,3.28735 -1.6822,7.90559 0.78782,10.31509 1.23553,1.20462 2.7659,1.6282 4.24193,1.34015 1.47603,-0.28807 2.89818,-1.28849 3.91566,-2.93213 l 52.28896,-84.47199 c 2.0359,-3.28818 2.7736,-8.18962 -0.78669,-10.31463 z"
   id="path6"
   inkscape:connector-curvature="0"
   style="stroke-width:0.58707929"
   sodipodi:nodetypes="ccccccccc" />
			
			<path
   d="m 333.45416,224.91173 c -2.93225,-12.3373 -14.93743,-19.9255 -26.76188,-16.91654 -11.82445,3.00894 -19.05886,15.49357 -16.12673,27.83034 2.93211,12.33677 14.93742,19.92549 26.76186,16.91655 11.82444,-3.00893 19.05875,-15.4941 16.12675,-27.83035 z m -31.45154,8.00342 c -1.3683,-5.75699 2.00833,-11.58335 7.52572,-12.98734 5.5174,-1.40401 11.12047,2.1373 12.48875,7.8943 1.36827,5.75699 -2.00835,11.58336 -7.52573,12.98736 -5.51739,1.404 -11.12047,-2.13731 -12.48874,-7.89432 z"
   id="path10"
   inkscape:connector-curvature="0"
   style="stroke-width:0.54042041" />
			<path
   d="m 368.37471,248.04198 c -11.82496,3.00907 -19.05884,15.49354 -16.12674,27.83035 2.93212,12.33678 14.93743,19.92549 26.76188,16.91655 11.82444,-3.00895 19.05887,-15.49355 16.12674,-27.83036 -2.93225,-12.33731 -14.93742,-19.92548 -26.76188,-16.91654 z m 7.79909,32.81428 c -5.51794,1.40412 -11.1206,-2.13786 -12.48875,-7.89433 -1.36815,-5.75644 2.00834,-11.58333 7.52572,-12.98733 5.51738,-1.40401 11.1206,2.13786 12.48876,7.8943 1.36816,5.75645 -2.00732,11.58311 -7.52573,12.98736 z"
   id="path12"
   inkscape:connector-curvature="0"
   style="stroke-width:0.54042041" />
		<g
   aria-label="-90"
   transform="matrix(0.98199413,2.3744002e-4,-0.05169925,1.0183235,0,0)"
   style="font-style:normal;font-weight:normal;font-size:53.49441147px;line-height:1.25;font-family:sans-serif;letter-spacing:0px;word-spacing:0px;fill:#000000;fill-opacity:1;stroke:none;stroke-width:1.33736026"
   id="text4599"><path
     d="m 138.84147,275.79201 q -3.27799,0 -5.31901,-1.85547 -2.04101,-1.85546 -2.04101,-4.76237 0,-1.79362 0.98958,-4.57682 1.05143,-2.84505 2.16471,-3.89648 2.84505,-2.65951 11.93685,-2.65951 6.43229,0 9.2155,1.17513 2.7832,1.17513 2.7832,4.02018 0,3.278 -1.73177,5.69011 -1.60808,2.22656 -5.8138,3.83463 -8.22592,3.0306 -12.18425,3.0306 z"
     style="font-style:normal;font-variant:normal;font-weight:normal;font-stretch:normal;font-size:126.66666412px;font-family:Forte;-inkscape-font-specification:'Forte, Normal';font-variant-ligatures:normal;font-variant-caps:normal;font-variant-numeric:normal;font-feature-settings:normal;text-align:start;writing-mode:lr-tb;text-anchor:start;stroke-width:1.33736026"
     id="path31" /><path
     d="m 188.63374,256.08105 q -2.60421,5.88044 -4.03098,11.72267 -1.42811,5.90397 -1.54296,11.21625 -0.10148,4.69457 1.32402,7.50398 1.36362,2.80816 3.77774,2.85648 0.99042,0.0198 2.55797,-0.87578 1.5662,-0.83383 2.83225,-2.10624 3.35417,-3.33175 5.37058,-7.80261 1.9545,-4.47211 2.04664,-8.73428 0.11218,-5.18874 -3.27279,-9.02612 -3.44687,-3.83862 -9.06247,-4.75435 z m 1.43526,-3.37014 0.007,-0.30885 0.24093,0.3138 q 5.39956,-3.41441 9.01918,-4.70153 3.5577,-1.28835 7.45742,-1.21032 6.49955,0.13007 10.54941,4.72231 3.98661,4.65278 3.83037,11.87995 -0.17493,8.09197 -5.41636,15.64998 -5.24277,7.61977 -13.5178,12.27438 -8.27502,4.65461 -16.50646,4.42811 -9.03747,-0.18084 -15.46006,-6.73628 -7.32836,-7.62412 -7.04927,-20.53421 0.20031,-9.26561 5.05518,-18.99426 4.85485,-9.72866 12.64489,-17.73004 7.79004,-8.00138 17.18329,-12.81902 9.3919,-4.75585 18.05797,-4.58245 1.98082,0.0396 2.83808,0.48938 0.79535,0.44849 0.76998,1.62213 -0.0134,0.6177 -0.64437,1.16125 -0.69425,0.60408 -2.06942,1.19454 -5.18583,2.12096 -10.24736,7.08706 -5.12345,4.96487 -9.48492,11.92252 -4.4247,7.01817 -7.25736,14.87155 z"
     style="font-style:normal;font-variant:normal;font-weight:normal;font-stretch:normal;font-size:126.66666412px;font-family:Forte;-inkscape-font-specification:'Forte, Normal';font-variant-ligatures:normal;font-variant-caps:normal;font-variant-numeric:normal;font-feature-settings:normal;text-align:start;writing-mode:lr-tb;text-anchor:start;stroke-width:1.33736026"
     id="path33"
     inkscape:connector-curvature="0" /><path
     d="m 274.16699,215.48928 h 0.61849 q 3.33984,0 6.37044,3.0306 3.09245,3.0306 4.88607,8.10221 1.79362,5.07162 1.79362,10.63802 0,5.62826 -1.60808,12.55534 -1.60807,6.86524 -4.32942,13.23568 -2.65951,6.37044 -6.49414,12.36979 -3.77279,5.99935 -7.85482,9.95768 -9.64844,9.77214 -19.72982,9.77214 -6.74154,0 -11.875,-3.33985 -5.13346,-3.40169 -7.91667,-9.58659 -2.7832,-6.24674 -2.7832,-14.2871 0,-13.85417 5.75195,-26.53321 5.81381,-12.74088 15.33855,-20.5957 9.52473,-7.85482 19.60611,-7.85482 4.88607,0 8.22592,2.53581 z m -5.56641,2.9069 1.11328,-0.61849 -0.24739,-0.24739 q -3.95834,0.0618 -8.16407,4.02018 -4.14388,3.89648 -7.48372,10.08138 -3.33984,6.18489 -5.44271,13.97786 -2.10286,7.79297 -2.10286,14.72005 0,5.00977 1.73177,10.32878 1.79362,5.25716 4.45312,8.78255 2.72136,3.52539 5.19531,3.52539 1.91732,0 4.02019,-2.53581 2.10286,-2.59765 3.83463,-7.29817 1.79362,-4.51498 3.09245,-9.46289 1.29883,-4.94792 1.97917,-9.77214 0.68034,-4.82422 0.68034,-8.78255 0,-6.24674 -2.04102,-11.875 -1.97917,-5.6901 -5.19531,-8.41146 -0.61849,-0.43294 -0.61849,-0.86588 0,-1.42253 5.19531,-5.56641 z"
     style="font-style:normal;font-variant:normal;font-weight:normal;font-stretch:normal;font-size:126.66666412px;font-family:Forte;-inkscape-font-specification:'Forte, Normal';font-variant-ligatures:normal;font-variant-caps:normal;font-variant-numeric:normal;font-feature-settings:normal;text-align:start;writing-mode:lr-tb;text-anchor:start;stroke-width:1.33736026"
     id="path35" /></g>
<path
   style="fill:#ececec;fill-opacity:1;stroke:none;stroke-width:0;stroke-miterlimit:4;stroke-dasharray:none;stroke-opacity:1"
   d="m 236.22638,287.2565 c -2.93721,-1.97265 -5.74202,-7.55497 -7.06989,-14.07097 -3.33581,-16.3691 8.20785,-44.64634 20.62389,-50.52007 0.95237,-0.45055 2.06814,-0.81927 2.47949,-0.81939 0.66723,-1.9e-4 0.48023,0.22652 -1.73335,2.10149 -2.61997,2.21917 -3.82981,3.83988 -3.35354,4.49241 0.14915,0.20436 0.90904,1.21445 1.68864,2.24465 1.59506,2.10779 2.7156,4.66708 3.78846,8.65277 0.68129,2.53102 0.73056,3.09162 0.73873,8.40678 0.007,4.74039 -0.0931,6.26139 -0.5991,9.0747 -2.18085,12.12586 -6.82207,24.63457 -10.74101,28.94842 -2.2275,2.45197 -3.79271,2.85231 -5.82232,1.48921 z"
   id="path842"
   inkscape:connector-curvature="0" /><path
   style="fill:#ececec;fill-opacity:1;stroke:none;stroke-width:0;stroke-miterlimit:4;stroke-dasharray:none;stroke-opacity:1"
   d="m 310.23611,240.80386 c -2.02314,-0.39658 -3.94523,-1.51951 -5.52898,-3.23014 -3.29472,-3.5587 -3.77505,-8.67008 -1.21535,-12.93291 1.08256,-1.80285 2.55001,-3.06609 4.71709,-4.06066 1.32405,-0.60767 1.99261,-0.73833 3.78418,-0.73957 1.87175,-10e-4 2.42918,0.11697 3.98664,0.84579 2.30449,1.07841 4.08089,2.85263 5.17921,5.17286 0.78738,1.66337 0.86023,2.04663 0.86085,4.529 6.3e-4,2.48462 -0.0714,2.86414 -0.86017,4.52901 -1.50696,3.18099 -4.17666,5.26588 -7.53884,5.88741 -1.7779,0.32866 -1.70389,0.32868 -3.38463,-7.9e-4 z"
   id="path844"
   inkscape:connector-curvature="0" /><path
   style="fill:#ececec;fill-opacity:1;stroke:none;stroke-width:0;stroke-miterlimit:4;stroke-dasharray:none;stroke-opacity:1"
   d="m 370.48745,280.44597 c -3.00063,-1.11347 -5.10282,-3.27741 -6.31815,-6.50376 -0.47605,-1.26379 -0.55408,-1.95444 -0.46275,-4.09635 0.0923,-2.1651 0.23235,-2.81432 0.87746,-4.0678 1.10269,-2.1426 1.88801,-3.08094 3.48506,-4.16411 3.96553,-2.68954 9.02807,-2.23258 12.48253,1.12669 5.23991,5.09553 3.96629,14.02742 -2.45065,17.18647 -2.29838,1.13148 -5.39404,1.34246 -7.6135,0.51886 z"
   id="path846"
   inkscape:connector-curvature="0" /><path
   style="fill:#d2d2d2;fill-opacity:1;stroke:none;stroke-width:0;stroke-miterlimit:4;stroke-dasharray:none;stroke-opacity:1"
   d="m 207.13578,483.86361 c -3.17593,-1.44153 -7.19044,-5.35966 -15.29331,-14.92609 -13.74679,-16.22979 -20.74003,-21.19788 -32.7989,-23.30077 -3.55058,-0.61917 -8.75505,-0.83483 -20.14712,-0.83483 -15.89112,0 -19.58505,-0.3624 -23.01582,-2.25801 -3.89848,-2.15404 -5.7435,-6.31574 -9.97399,-22.49761 -5.42441,-20.74877 -9.106322,-27.56369 -18.864467,-34.91667 -4.167821,-3.14056 -6.698837,-4.47376 -27.042341,-14.24451 -7.089873,-3.40518 -11.4682,-6.90836 -12.485086,-9.98956 -1.043283,-3.16118 -0.285361,-12.31801 1.884087,-22.76262 4.129905,-19.88303 3.845893,-27.92398 -1.354766,-38.35608 C 45.389492,294.452 42.605841,290.53555 34.553413,280.7962 21.697495,265.24708 20.71674,262.6276 24.75558,254.62744 c 1.184571,-2.34641 5.416803,-8.5984 9.40496,-13.89331 11.500372,-15.26857 14.790185,-22.1416 15.406585,-32.1872 0.391039,-6.37285 -0.368102,-11.53459 -3.691832,-25.10243 -4.060365,-16.57486 -4.345433,-20.23338 -1.921404,-24.65907 1.700182,-3.10412 5.867747,-5.92173 18.97847,-12.83096 17.319051,-9.127 23.468827,-14.20007 28.195699,-23.25919 2.567636,-4.92093 4.212409,-10.4457 6.888971,-23.140001 3.617131,-17.155233 5.735421,-21.869356 10.807411,-24.05127 4.17667,-1.796752 7.19692,-2.165629 22.52314,-2.750845 14.75591,-0.563439 19.68303,-1.248975 25.37154,-3.530074 8.39417,-3.366067 14.35645,-8.776897 25.41595,-23.065235 4.04066,-5.220339 8.83938,-10.872637 10.66381,-12.560662 6.57518,-6.08359 9.71015,-5.808387 28.2441,2.479401 13.43986,6.009873 17.96977,7.534471 25.01646,8.419591 9.08747,1.141459 17.35009,-1.148934 34.06332,-9.442329 12.72201,-6.312878 16.78693,-7.879052 20.44965,-7.879052 4.92859,0 8.72624,3.044576 19.20008,15.392707 14.10607,16.630336 19.82765,20.840418 32.32085,23.782447 1.19322,0.280992 10.71186,0.685001 21.15254,0.897797 21.38458,0.435849 22.07594,0.558284 25.4569,4.508178 2.39501,2.798024 4.06575,7.42072 7.68377,21.25988 3.1686,12.120107 5.05133,17.258997 8.24635,22.508227 4.83103,7.93713 10.83212,12.82087 22.88417,18.62336 4.32542,2.08248 10.79322,5.19929 14.37288,6.92624 7.56656,3.65037 11.17275,6.54909 12.51285,10.05809 1.32947,3.48117 0.81887,9.41417 -2.00496,23.29731 -2.07831,10.21786 -2.31956,12.19905 -2.34449,19.25424 -0.024,6.78844 0.14636,8.41907 1.24518,11.91852 2.38883,7.60785 5.66927,12.85597 15.25339,24.40274 7.43822,8.96144 9.2189,11.38588 11.16703,15.20416 3.31043,6.48839 1.83065,10.37379 -9.95462,26.13732 -12.20791,16.32884 -14.72634,21.80936 -15.15571,32.98133 -0.30235,7.86691 0.24545,11.42048 4.05506,26.30508 2.16709,8.46708 2.50424,10.52941 2.54045,15.53979 0.041,5.67144 0.0111,5.81525 -1.63388,7.86441 -2.49864,3.11255 -7.10102,6.10303 -18.61998,12.09865 -12.41483,6.46192 -17.23465,9.69822 -22.13206,14.86071 -6.3498,6.69349 -8.99917,13.09947 -12.65217,30.59198 -3.32537,15.92365 -5.19405,20.93202 -8.83598,23.68182 -3.29549,2.48823 -6.70062,3.05222 -23.13502,3.83179 -9.4472,0.44813 -17.14477,1.08317 -19.79661,1.63319 -12.33308,2.55803 -19.60678,8.21268 -32.78947,25.49088 -9.53265,12.4942 -14.07154,16.49646 -18.74686,16.53046 -3.10528,0.0226 -9.55817,-2.18794 -19.88199,-6.81086 -26.66269,-11.93931 -33.52339,-11.8009 -59.36814,1.19772 -15.57503,7.83347 -19.59352,8.93686 -24.47619,6.72064 z m 68.48298,-50.77966 c 20.05651,-2.12308 39.24007,-7.616 57.63507,-16.50294 19.2406,-9.29545 34.38527,-20.04813 49.21239,-34.94066 41.86604,-42.05074 59.89247,-102.26416 48.22296,-161.07845 -5.64646,-28.45818 -18.97219,-56.28915 -37.80027,-78.94642 -5.59799,-6.73649 -18.20596,-19.09778 -25.06676,-24.57631 -27.0328,-21.586416 -57.47293,-34.056941 -93.8305,-38.439892 -8.97976,-1.082521 -30.4981,-0.778848 -40.53472,0.572039 -21.00859,2.827666 -37.9114,7.952808 -56.61813,17.167311 -16.83529,8.292672 -31.24852,18.479222 -44.87799,31.717532 -28.88326,28.05431 -46.128655,61.91 -52.491996,103.05085 -1.058934,6.84633 -1.219704,10.04098 -1.241898,24.67796 -0.02609,17.19564 0.347764,21.85886 2.739319,34.1695 10.611054,54.62095 46.342755,101.47961 95.940665,125.81687 30.86024,15.14284 64.11364,20.975 98.71186,17.31261 z"
   id="path848"
   inkscape:connector-curvature="0" /><path
   style="stroke-width:0.54237288;fill-opacity:1;fill:#ececec"
   d="M 245.76814,411.16409 C 190.12062,407.28138 141.42209,374.7562 116.62735,324.91248 94.930123,281.29552 95.2162,229.1683 117.39237,185.51654 c 12.19757,-24.0098 30.3725,-44.31052 53.25713,-59.48621 32.12707,-21.30473 71.86506,-29.75134 110.3952,-23.46534 44.98111,7.33845 84.58928,34.11865 108.1491,73.12266 24.9747,41.34637 29.16772,92.35293 11.30851,137.56381 -20.91323,52.94218 -69.24609,90.30736 -125.5363,97.04964 -8.66715,1.03812 -21.32561,1.41227 -29.19787,0.86299 z m -69.9661,-110.88763 c 8.06419,-2.50575 14.93596,-7.24081 20.33561,-14.01243 8.73965,-10.96027 10.24269,-24.42014 3.48641,-31.22121 -3.0474,-3.0676 -4.57361,-3.61752 -10.0462,-3.61981 -4.79053,-0.002 -5.08622,0.0726 -10.03059,2.53232 -2.80201,1.39391 -5.15758,2.47135 -5.23462,2.39432 -0.077,-0.077 1.04691,-2.47141 2.49765,-5.32085 6.77397,-13.30496 15.33654,-22.9228 24.547,-27.57223 3.10561,-1.5677 3.94787,-2.57306 3.38484,-4.0403 -0.45569,-1.1875 -2.51717,-1.54318 -6.69413,-1.15497 -17.03854,1.58356 -37.03385,17.64568 -46.68109,37.49863 -3.26991,6.72913 -4.78824,12.12147 -5.19235,18.44068 -0.85328,13.343 5.61748,23.94117 16.27615,26.658 3.23732,0.82517 9.7338,0.54192 13.35132,-0.58215 z m 60.00451,-0.93478 c 3.90732,-1.45401 9.60573,-5.60736 13.79988,-10.05822 13.76755,-14.6102 23.50774,-41.2476 20.40209,-55.79547 -1.6149,-7.56468 -5.69902,-13.34684 -9.95527,-14.09437 -1.14494,-0.20108 -2.63236,-0.71091 -3.30536,-1.13296 -2.07261,-1.29974 -6.18459,-1.80402 -10.22068,-1.25344 -11.45393,1.56249 -24.24558,12.77878 -31.89453,27.96654 -4.88417,9.69802 -7.37301,19.76191 -7.37301,29.81357 0,6.68264 0.66494,10.21273 2.76195,14.66281 4.5531,9.66213 15.31112,13.78909 25.78493,9.89154 z m 82.32214,1.08639 c 0.74842,-0.341 1.942,-1.50032 2.6524,-2.57627 5.42593,-8.21791 52.80187,-85.34663 53.33958,-86.83763 1.44196,-3.99835 0.24004,-7.21605 -3.32786,-8.90913 -1.78882,-0.84886 -2.24379,-0.87289 -3.99623,-0.21109 -1.84043,0.69503 -3.73817,3.58596 -27.36034,41.67929 -30.42034,49.05614 -29.33433,47.19015 -29.33433,50.40236 0,5.26207 3.84887,8.35605 8.02678,6.45247 z m 64.95632,-9.01626 c 14.48737,-7.13211 17.34888,-26.93146 5.51043,-38.12777 -1.59073,-1.50444 -4.29626,-3.39333 -6.01231,-4.19752 -2.76772,-1.29705 -3.76322,-1.46218 -8.81499,-1.46218 -4.7914,0 -6.12516,0.19763 -8.40678,1.24567 -4.31224,1.9808 -6.80286,3.94634 -9.31158,7.34849 -8.15791,11.06323 -4.98257,27.4943 6.62833,34.29874 4.00181,2.34522 6.56582,2.94013 11.95877,2.77473 4.27828,-0.13122 5.40478,-0.38192 8.44813,-1.88016 z M 129.40773,279.61534 c 7.44949,-2.15878 10.80919,-4.37086 12.19031,-8.02631 0.92639,-2.45188 0.71057,-5.6615 -0.45934,-6.83142 -2.63547,-2.63546 -15.61615,-2.95534 -20.52075,-0.50567 -3.03311,1.51492 -5.07817,5.06668 -5.44933,9.46411 -0.27508,3.25918 0.39364,4.75767 2.76973,6.20647 2.35569,1.43637 5.76813,1.34498 11.46938,-0.30718 z m 190.39431,-27.44646 c 6.144,-2.2914 11.33189,-8.0154 13.38198,-14.76489 0.91983,-3.02832 1.08197,-4.65173 0.85762,-8.58652 -0.36784,-6.45127 -2.70687,-11.41745 -7.44257,-15.80187 -4.57943,-4.23974 -7.98341,-5.49455 -14.93263,-5.50461 -4.74856,-0.007 -5.80979,0.1722 -8.52505,1.43854 -14.81923,6.91139 -17.99114,27.1275 -6.03106,38.43884 6.2778,5.93728 14.78463,7.72943 22.69171,4.78051 z"
   id="path4549"
   inkscape:connector-curvature="0" /><path
   style="fill:#ececec;fill-opacity:1;stroke-width:0.54237288"
   d="m 167.69505,293.48346 c -3.48055,-3.48056 -2.42701,-15.45329 2.42697,-27.5809 1.9199,-4.79682 1.98751,-4.88451 3.44409,-4.46677 5.01179,1.43737 8.58254,5.33021 9.4884,10.34431 1.15275,6.38068 -4.06705,17.18251 -10.37013,21.45989 -2.32198,1.57574 -3.59494,1.63785 -4.98933,0.24347 z"
   id="path4559"
   inkscape:connector-curvature="0" /><path
   style="fill:#ececec;fill-opacity:1;stroke-width:0.54237288"
   d="m 235.49995,286.62301 c -1.83606,-1.54495 -5.00067,-7.76853 -5.90294,-11.60884 -2.05474,-8.74552 -0.88469,-18.14741 3.7461,-30.10169 3.95102,-10.19946 10.59344,-19.37282 15.88144,-21.9327 3.6335,-1.75894 3.73186,-1.34188 0.43149,1.82968 l -3.06754,2.94783 1.21549,1.52675 c 3.7454,4.70447 5.53721,10.74876 5.54935,18.71955 0.0239,15.64786 -9.0414,40.02753 -14.8837,40.02753 -0.71293,0 -2.04929,-0.63365 -2.96969,-1.40811 z"
   id="path4561"
   inkscape:connector-curvature="0" /><path
   style="fill:#ececec;fill-opacity:1;stroke-width:0.54237288"
   d="m 307.86983,239.94152 c -2.42422,-1.28089 -3.52072,-2.38688 -4.74536,-4.78643 -2.42708,-4.75559 -0.68608,-11.14943 3.78901,-13.91519 3.10426,-1.91853 7.48883,-1.7684 10.50131,0.35958 5.34766,3.77752 6.2387,10.94149 1.96612,15.80769 -0.95228,1.08458 -2.52061,2.30172 -3.48518,2.70474 -2.32674,0.97217 -6.01154,0.89394 -8.0259,-0.17039 z"
   id="path4563"
   inkscape:connector-curvature="0" /><path
   style="fill:#ececec;fill-opacity:1;stroke-width:0.54237288"
   d="m 369.67791,279.96079 c -4.20657,-1.91077 -6.61686,-6.39918 -5.92552,-11.0344 0.60827,-4.07827 2.62667,-6.70572 6.34471,-8.25921 4.3876,-1.83326 9.2182,-0.22346 11.86815,3.95507 1.26567,1.99576 1.5656,3.07593 1.5656,5.63836 0,4.93332 -1.99863,8.17003 -6.10412,9.88542 -2.62242,1.09571 -5.05694,1.03752 -7.74882,-0.18524 z"
   id="path4565"
   inkscape:connector-curvature="0" /></g>
	</g>
</g>
<g
   id="g20">
</g>
<g
   id="g22">
</g>
<g
   id="g24">
</g>
<g
   id="g26">
</g>
<g
   id="g28">
</g>
<g
   id="g30">
</g>
<g
   id="g32">
</g>
<g
   id="g34">
</g>
<g
   id="g36">
</g>
<g
   id="g38">
</g>
<g
   id="g40">
</g>
<g
   id="g42">
</g>
<g
   id="g44">
</g>
<g
   id="g46">
</g>
<g
   id="g48">
</g>
</svg>